{
  "type": "File",
  "start": 0,
  "end": 772,
  "loc": {
    "start": {
      "line": 1,
      "column": 0
    },
    "end": {
      "line": 33,
      "column": 1
    }
  },
  "program": {
    "type": "Program",
    "start": 0,
    "end": 772,
    "loc": {
      "start": {
        "line": 1,
        "column": 0
      },
      "end": {
        "line": 33,
        "column": 1
      }
    },
    "sourceType": "module",
    "body": [
      {
        "type": "ImportDeclaration",
        "start": 0,
        "end": 33,
        "loc": {
          "start": {
            "line": 1,
            "column": 0
          },
          "end": {
            "line": 1,
            "column": 33
          }
        },
        "specifiers": [
          {
            "type": "ImportSpecifier",
            "start": 9,
            "end": 13,
            "loc": {
              "start": {
                "line": 1,
                "column": 9
              },
              "end": {
                "line": 1,
                "column": 13
              }
            },
            "imported": {
              "type": "Identifier",
              "start": 9,
              "end": 13,
              "loc": {
                "start": {
                  "line": 1,
                  "column": 9
                },
                "end": {
                  "line": 1,
                  "column": 13
                },
                "identifierName": "Page"
              },
              "name": "Page"
            },
            "local": {
              "type": "Identifier",
              "start": 9,
              "end": 13,
              "loc": {
                "start": {
                  "line": 1,
                  "column": 9
                },
                "end": {
                  "line": 1,
                  "column": 13
                },
                "identifierName": "Page"
              },
              "name": "Page"
            }
          }
        ],
        "source": {
          "type": "StringLiteral",
          "start": 21,
          "end": 32,
          "loc": {
            "start": {
              "line": 1,
              "column": 21
            },
            "end": {
              "line": 1,
              "column": 32
            }
          },
          "extra": {
            "rawValue": "./page.js",
            "raw": "'./page.js'"
          },
          "value": "./page.js"
        }
      },
      {
        "type": "ImportDeclaration",
        "start": 35,
        "end": 84,
        "loc": {
          "start": {
            "line": 2,
            "column": 0
          },
          "end": {
            "line": 2,
            "column": 49
          }
        },
        "specifiers": [
          {
            "type": "ImportSpecifier",
            "start": 44,
            "end": 49,
            "loc": {
              "start": {
                "line": 2,
                "column": 9
              },
              "end": {
                "line": 2,
                "column": 14
              }
            },
            "imported": {
              "type": "Identifier",
              "start": 44,
              "end": 49,
              "loc": {
                "start": {
                  "line": 2,
                  "column": 9
                },
                "end": {
                  "line": 2,
                  "column": 14
                },
                "identifierName": "Image"
              },
              "name": "Image"
            },
            "local": {
              "type": "Identifier",
              "start": 44,
              "end": 49,
              "loc": {
                "start": {
                  "line": 2,
                  "column": 9
                },
                "end": {
                  "line": 2,
                  "column": 14
                },
                "identifierName": "Image"
              },
              "name": "Image"
            }
          }
        ],
        "source": {
          "type": "StringLiteral",
          "start": 57,
          "end": 83,
          "loc": {
            "start": {
              "line": 2,
              "column": 22
            },
            "end": {
              "line": 2,
              "column": 48
            }
          },
          "extra": {
            "rawValue": "../utilities/ui/image.js",
            "raw": "'../utilities/ui/image.js'"
          },
          "value": "../utilities/ui/image.js"
        }
      },
      {
        "type": "ExportNamedDeclaration",
        "start": 88,
        "end": 772,
        "loc": {
          "start": {
            "line": 4,
            "column": 0
          },
          "end": {
            "line": 33,
            "column": 1
          }
        },
        "specifiers": [],
        "source": null,
        "declaration": {
          "type": "ClassDeclaration",
          "start": 95,
          "end": 772,
          "loc": {
            "start": {
              "line": 4,
              "column": 7
            },
            "end": {
              "line": 33,
              "column": 1
            }
          },
          "id": {
            "type": "Identifier",
            "start": 101,
            "end": 109,
            "loc": {
              "start": {
                "line": 4,
                "column": 13
              },
              "end": {
                "line": 4,
                "column": 21
              },
              "identifierName": "HomePage"
            },
            "name": "HomePage"
          },
          "superClass": {
            "type": "Identifier",
            "start": 118,
            "end": 122,
            "loc": {
              "start": {
                "line": 4,
                "column": 30
              },
              "end": {
                "line": 4,
                "column": 34
              },
              "identifierName": "Page"
            },
            "name": "Page"
          },
          "body": {
            "type": "ClassBody",
            "start": 123,
            "end": 772,
            "loc": {
              "start": {
                "line": 4,
                "column": 35
              },
              "end": {
                "line": 33,
                "column": 1
              }
            },
            "body": [
              {
                "type": "ClassMethod",
                "start": 175,
                "end": 221,
                "loc": {
                  "start": {
                    "line": 8,
                    "column": 4
                  },
                  "end": {
                    "line": 10,
                    "column": 5
                  }
                },
                "static": false,
                "computed": false,
                "key": {
                  "type": "Identifier",
                  "start": 175,
                  "end": 186,
                  "loc": {
                    "start": {
                      "line": 8,
                      "column": 4
                    },
                    "end": {
                      "line": 8,
                      "column": 15
                    },
                    "identifierName": "constructor"
                  },
                  "name": "constructor",
                  "leadingComments": null
                },
                "kind": "constructor",
                "id": null,
                "generator": false,
                "expression": false,
                "async": false,
                "params": [],
                "body": {
                  "type": "BlockStatement",
                  "start": 189,
                  "end": 221,
                  "loc": {
                    "start": {
                      "line": 8,
                      "column": 18
                    },
                    "end": {
                      "line": 10,
                      "column": 5
                    }
                  },
                  "body": [
                    {
                      "type": "ExpressionStatement",
                      "start": 200,
                      "end": 214,
                      "loc": {
                        "start": {
                          "line": 9,
                          "column": 8
                        },
                        "end": {
                          "line": 9,
                          "column": 22
                        }
                      },
                      "expression": {
                        "type": "CallExpression",
                        "start": 200,
                        "end": 213,
                        "loc": {
                          "start": {
                            "line": 9,
                            "column": 8
                          },
                          "end": {
                            "line": 9,
                            "column": 21
                          }
                        },
                        "callee": {
                          "type": "Super",
                          "start": 200,
                          "end": 205,
                          "loc": {
                            "start": {
                              "line": 9,
                              "column": 8
                            },
                            "end": {
                              "line": 9,
                              "column": 13
                            }
                          }
                        },
                        "arguments": [
                          {
                            "type": "StringLiteral",
                            "start": 206,
                            "end": 212,
                            "loc": {
                              "start": {
                                "line": 9,
                                "column": 14
                              },
                              "end": {
                                "line": 9,
                                "column": 20
                              }
                            },
                            "extra": {
                              "rawValue": "Home",
                              "raw": "'Home'"
                            },
                            "value": "Home"
                          }
                        ]
                      }
                    }
                  ],
                  "directives": [],
                  "trailingComments": null
                },
                "leadingComments": [
                  {
                    "type": "CommentBlock",
                    "value": "*\r\n     * Class constructor.\r\n     ",
                    "start": 130,
                    "end": 169,
                    "loc": {
                      "start": {
                        "line": 5,
                        "column": 4
                      },
                      "end": {
                        "line": 7,
                        "column": 7
                      }
                    }
                  }
                ],
                "trailingComments": [
                  {
                    "type": "CommentBlock",
                    "value": "*\r\n     * Create Home page element.\r\n     ",
                    "start": 229,
                    "end": 275,
                    "loc": {
                      "start": {
                        "line": 12,
                        "column": 4
                      },
                      "end": {
                        "line": 14,
                        "column": 7
                      }
                    }
                  }
                ]
              },
              {
                "type": "ClassMethod",
                "start": 281,
                "end": 544,
                "loc": {
                  "start": {
                    "line": 15,
                    "column": 4
                  },
                  "end": {
                    "line": 23,
                    "column": 5
                  }
                },
                "static": false,
                "computed": false,
                "key": {
                  "type": "Identifier",
                  "start": 281,
                  "end": 294,
                  "loc": {
                    "start": {
                      "line": 15,
                      "column": 4
                    },
                    "end": {
                      "line": 15,
                      "column": 17
                    },
                    "identifierName": "createElement"
                  },
                  "name": "createElement",
                  "leadingComments": null
                },
                "kind": "method",
                "id": null,
                "generator": false,
                "expression": false,
                "async": false,
                "params": [],
                "body": {
                  "type": "BlockStatement",
                  "start": 297,
                  "end": 544,
                  "loc": {
                    "start": {
                      "line": 15,
                      "column": 20
                    },
                    "end": {
                      "line": 23,
                      "column": 5
                    }
                  },
                  "body": [
                    {
                      "type": "ExpressionStatement",
                      "start": 308,
                      "end": 330,
                      "loc": {
                        "start": {
                          "line": 16,
                          "column": 8
                        },
                        "end": {
                          "line": 16,
                          "column": 30
                        }
                      },
                      "expression": {
                        "type": "CallExpression",
                        "start": 308,
                        "end": 329,
                        "loc": {
                          "start": {
                            "line": 16,
                            "column": 8
                          },
                          "end": {
                            "line": 16,
                            "column": 29
                          }
                        },
                        "callee": {
                          "type": "MemberExpression",
                          "start": 308,
                          "end": 327,
                          "loc": {
                            "start": {
                              "line": 16,
                              "column": 8
                            },
                            "end": {
                              "line": 16,
                              "column": 27
                            }
                          },
                          "object": {
                            "type": "Super",
                            "start": 308,
                            "end": 313,
                            "loc": {
                              "start": {
                                "line": 16,
                                "column": 8
                              },
                              "end": {
                                "line": 16,
                                "column": 13
                              }
                            }
                          },
                          "property": {
                            "type": "Identifier",
                            "start": 314,
                            "end": 327,
                            "loc": {
                              "start": {
                                "line": 16,
                                "column": 14
                              },
                              "end": {
                                "line": 16,
                                "column": 27
                              },
                              "identifierName": "createElement"
                            },
                            "name": "createElement"
                          },
                          "computed": false
                        },
                        "arguments": []
                      }
                    },
                    {
                      "type": "VariableDeclaration",
                      "start": 342,
                      "end": 388,
                      "loc": {
                        "start": {
                          "line": 18,
                          "column": 8
                        },
                        "end": {
                          "line": 18,
                          "column": 54
                        }
                      },
                      "declarations": [
                        {
                          "type": "VariableDeclarator",
                          "start": 348,
                          "end": 387,
                          "loc": {
                            "start": {
                              "line": 18,
                              "column": 14
                            },
                            "end": {
                              "line": 18,
                              "column": 53
                            }
                          },
                          "id": {
                            "type": "Identifier",
                            "start": 348,
                            "end": 352,
                            "loc": {
                              "start": {
                                "line": 18,
                                "column": 14
                              },
                              "end": {
                                "line": 18,
                                "column": 18
                              },
                              "identifierName": "text"
                            },
                            "name": "text"
                          },
                          "init": {
                            "type": "StringLiteral",
                            "start": 355,
                            "end": 387,
                            "loc": {
                              "start": {
                                "line": 18,
                                "column": 21
                              },
                              "end": {
                                "line": 18,
                                "column": 53
                              }
                            },
                            "extra": {
                              "rawValue": "<h1>Welcome to My App</h1><br>",
                              "raw": "'<h1>Welcome to My App</h1><br>'"
                            },
                            "value": "<h1>Welcome to My App</h1><br>"
                          }
                        }
                      ],
                      "kind": "const"
                    },
                    {
                      "type": "ExpressionStatement",
                      "start": 398,
                      "end": 424,
                      "loc": {
                        "start": {
                          "line": 19,
                          "column": 8
                        },
                        "end": {
                          "line": 19,
                          "column": 34
                        }
                      },
                      "expression": {
                        "type": "CallExpression",
                        "start": 398,
                        "end": 423,
                        "loc": {
                          "start": {
                            "line": 19,
                            "column": 8
                          },
                          "end": {
                            "line": 19,
                            "column": 33
                          }
                        },
                        "callee": {
                          "type": "MemberExpression",
                          "start": 398,
                          "end": 417,
                          "loc": {
                            "start": {
                              "line": 19,
                              "column": 8
                            },
                            "end": {
                              "line": 19,
                              "column": 27
                            }
                          },
                          "object": {
                            "type": "MemberExpression",
                            "start": 398,
                            "end": 410,
                            "loc": {
                              "start": {
                                "line": 19,
                                "column": 8
                              },
                              "end": {
                                "line": 19,
                                "column": 20
                              }
                            },
                            "object": {
                              "type": "ThisExpression",
                              "start": 398,
                              "end": 402,
                              "loc": {
                                "start": {
                                  "line": 19,
                                  "column": 8
                                },
                                "end": {
                                  "line": 19,
                                  "column": 12
                                }
                              }
                            },
                            "property": {
                              "type": "Identifier",
                              "start": 403,
                              "end": 410,
                              "loc": {
                                "start": {
                                  "line": 19,
                                  "column": 13
                                },
                                "end": {
                                  "line": 19,
                                  "column": 20
                                },
                                "identifierName": "element"
                              },
                              "name": "element"
                            },
                            "computed": false
                          },
                          "property": {
                            "type": "Identifier",
                            "start": 411,
                            "end": 417,
                            "loc": {
                              "start": {
                                "line": 19,
                                "column": 21
                              },
                              "end": {
                                "line": 19,
                                "column": 27
                              },
                              "identifierName": "append"
                            },
                            "name": "append"
                          },
                          "computed": false
                        },
                        "arguments": [
                          {
                            "type": "Identifier",
                            "start": 418,
                            "end": 422,
                            "loc": {
                              "start": {
                                "line": 19,
                                "column": 28
                              },
                              "end": {
                                "line": 19,
                                "column": 32
                              },
                              "identifierName": "text"
                            },
                            "name": "text"
                          }
                        ]
                      }
                    },
                    {
                      "type": "VariableDeclaration",
                      "start": 436,
                      "end": 491,
                      "loc": {
                        "start": {
                          "line": 21,
                          "column": 8
                        },
                        "end": {
                          "line": 21,
                          "column": 63
                        }
                      },
                      "declarations": [
                        {
                          "type": "VariableDeclarator",
                          "start": 442,
                          "end": 490,
                          "loc": {
                            "start": {
                              "line": 21,
                              "column": 14
                            },
                            "end": {
                              "line": 21,
                              "column": 62
                            }
                          },
                          "id": {
                            "type": "Identifier",
                            "start": 442,
                            "end": 447,
                            "loc": {
                              "start": {
                                "line": 21,
                                "column": 14
                              },
                              "end": {
                                "line": 21,
                                "column": 19
                              },
                              "identifierName": "image"
                            },
                            "name": "image"
                          },
                          "init": {
                            "type": "NewExpression",
                            "start": 450,
                            "end": 490,
                            "loc": {
                              "start": {
                                "line": 21,
                                "column": 22
                              },
                              "end": {
                                "line": 21,
                                "column": 62
                              }
                            },
                            "callee": {
                              "type": "Identifier",
                              "start": 454,
                              "end": 459,
                              "loc": {
                                "start": {
                                  "line": 21,
                                  "column": 26
                                },
                                "end": {
                                  "line": 21,
                                  "column": 31
                                },
                                "identifierName": "Image"
                              },
                              "name": "Image"
                            },
                            "arguments": [
                              {
                                "type": "StringLiteral",
                                "start": 460,
                                "end": 489,
                                "loc": {
                                  "start": {
                                    "line": 21,
                                    "column": 32
                                  },
                                  "end": {
                                    "line": 21,
                                    "column": 61
                                  }
                                },
                                "extra": {
                                  "rawValue": "../../images/javascript.png",
                                  "raw": "'../../images/javascript.png'"
                                },
                                "value": "../../images/javascript.png"
                              }
                            ]
                          }
                        }
                      ],
                      "kind": "const"
                    },
                    {
                      "type": "ExpressionStatement",
                      "start": 501,
                      "end": 537,
                      "loc": {
                        "start": {
                          "line": 22,
                          "column": 8
                        },
                        "end": {
                          "line": 22,
                          "column": 44
                        }
                      },
                      "expression": {
                        "type": "CallExpression",
                        "start": 501,
                        "end": 536,
                        "loc": {
                          "start": {
                            "line": 22,
                            "column": 8
                          },
                          "end": {
                            "line": 22,
                            "column": 43
                          }
                        },
                        "callee": {
                          "type": "MemberExpression",
                          "start": 501,
                          "end": 522,
                          "loc": {
                            "start": {
                              "line": 22,
                              "column": 8
                            },
                            "end": {
                              "line": 22,
                              "column": 29
                            }
                          },
                          "object": {
                            "type": "Identifier",
                            "start": 501,
                            "end": 506,
                            "loc": {
                              "start": {
                                "line": 22,
                                "column": 8
                              },
                              "end": {
                                "line": 22,
                                "column": 13
                              },
                              "identifierName": "image"
                            },
                            "name": "image"
                          },
                          "property": {
                            "type": "Identifier",
                            "start": 507,
                            "end": 522,
                            "loc": {
                              "start": {
                                "line": 22,
                                "column": 14
                              },
                              "end": {
                                "line": 22,
                                "column": 29
                              },
                              "identifierName": "appendToElement"
                            },
                            "name": "appendToElement"
                          },
                          "computed": false
                        },
                        "arguments": [
                          {
                            "type": "MemberExpression",
                            "start": 523,
                            "end": 535,
                            "loc": {
                              "start": {
                                "line": 22,
                                "column": 30
                              },
                              "end": {
                                "line": 22,
                                "column": 42
                              }
                            },
                            "object": {
                              "type": "ThisExpression",
                              "start": 523,
                              "end": 527,
                              "loc": {
                                "start": {
                                  "line": 22,
                                  "column": 30
                                },
                                "end": {
                                  "line": 22,
                                  "column": 34
                                }
                              }
                            },
                            "property": {
                              "type": "Identifier",
                              "start": 528,
                              "end": 535,
                              "loc": {
                                "start": {
                                  "line": 22,
                                  "column": 35
                                },
                                "end": {
                                  "line": 22,
                                  "column": 42
                                },
                                "identifierName": "element"
                              },
                              "name": "element"
                            },
                            "computed": false
                          }
                        ]
                      }
                    }
                  ],
                  "directives": [],
                  "trailingComments": null
                },
                "leadingComments": [
                  {
                    "type": "CommentBlock",
                    "value": "*\r\n     * Create Home page element.\r\n     ",
                    "start": 229,
                    "end": 275,
                    "loc": {
                      "start": {
                        "line": 12,
                        "column": 4
                      },
                      "end": {
                        "line": 14,
                        "column": 7
                      }
                    }
                  }
                ],
                "trailingComments": [
                  {
                    "type": "CommentBlock",
                    "value": "*\r\n     * Get the string of home page element.\r\n     ",
                    "start": 552,
                    "end": 609,
                    "loc": {
                      "start": {
                        "line": 25,
                        "column": 4
                      },
                      "end": {
                        "line": 27,
                        "column": 7
                      }
                    }
                  }
                ]
              },
              {
                "type": "ClassMethod",
                "start": 615,
                "end": 769,
                "loc": {
                  "start": {
                    "line": 28,
                    "column": 4
                  },
                  "end": {
                    "line": 32,
                    "column": 5
                  }
                },
                "static": false,
                "computed": false,
                "key": {
                  "type": "Identifier",
                  "start": 615,
                  "end": 631,
                  "loc": {
                    "start": {
                      "line": 28,
                      "column": 4
                    },
                    "end": {
                      "line": 28,
                      "column": 20
                    },
                    "identifierName": "getElementString"
                  },
                  "name": "getElementString",
                  "leadingComments": null
                },
                "kind": "method",
                "id": null,
                "generator": false,
                "expression": false,
                "async": false,
                "params": [],
                "body": {
                  "type": "BlockStatement",
                  "start": 634,
                  "end": 769,
                  "loc": {
                    "start": {
                      "line": 28,
                      "column": 23
                    },
                    "end": {
                      "line": 32,
                      "column": 5
                    }
                  },
                  "body": [
                    {
                      "type": "VariableDeclaration",
                      "start": 645,
                      "end": 706,
                      "loc": {
                        "start": {
                          "line": 29,
                          "column": 8
                        },
                        "end": {
                          "line": 29,
                          "column": 69
                        }
                      },
                      "declarations": [
                        {
                          "type": "VariableDeclarator",
                          "start": 651,
                          "end": 705,
                          "loc": {
                            "start": {
                              "line": 29,
                              "column": 14
                            },
                            "end": {
                              "line": 29,
                              "column": 68
                            }
                          },
                          "id": {
                            "type": "Identifier",
                            "start": 651,
                            "end": 662,
                            "loc": {
                              "start": {
                                "line": 29,
                                "column": 14
                              },
                              "end": {
                                "line": 29,
                                "column": 25
                              },
                              "identifierName": "styleString"
                            },
                            "name": "styleString"
                          },
                          "init": {
                            "type": "StringLiteral",
                            "start": 665,
                            "end": 705,
                            "loc": {
                              "start": {
                                "line": 29,
                                "column": 28
                              },
                              "end": {
                                "line": 29,
                                "column": 68
                              }
                            },
                            "extra": {
                              "rawValue": "text-align: center; padding-top: 70px;",
                              "raw": "'text-align: center; padding-top: 70px;'"
                            },
                            "value": "text-align: center; padding-top: 70px;"
                          }
                        }
                      ],
                      "kind": "const"
                    },
                    {
                      "type": "ReturnStatement",
                      "start": 718,
                      "end": 762,
                      "loc": {
                        "start": {
                          "line": 31,
                          "column": 8
                        },
                        "end": {
                          "line": 31,
                          "column": 52
                        }
                      },
                      "argument": {
                        "type": "TemplateLiteral",
                        "start": 725,
                        "end": 761,
                        "loc": {
                          "start": {
                            "line": 31,
                            "column": 15
                          },
                          "end": {
                            "line": 31,
                            "column": 51
                          }
                        },
                        "expressions": [
                          {
                            "type": "Identifier",
                            "start": 740,
                            "end": 751,
                            "loc": {
                              "start": {
                                "line": 31,
                                "column": 30
                              },
                              "end": {
                                "line": 31,
                                "column": 41
                              },
                              "identifierName": "styleString"
                            },
                            "name": "styleString"
                          }
                        ],
                        "quasis": [
                          {
                            "type": "TemplateElement",
                            "start": 726,
                            "end": 738,
                            "loc": {
                              "start": {
                                "line": 31,
                                "column": 16
                              },
                              "end": {
                                "line": 31,
                                "column": 28
                              }
                            },
                            "value": {
                              "raw": "<div style=\"",
                              "cooked": "<div style=\""
                            },
                            "tail": false
                          },
                          {
                            "type": "TemplateElement",
                            "start": 752,
                            "end": 760,
                            "loc": {
                              "start": {
                                "line": 31,
                                "column": 42
                              },
                              "end": {
                                "line": 31,
                                "column": 50
                              }
                            },
                            "value": {
                              "raw": "\"></div>",
                              "cooked": "\"></div>"
                            },
                            "tail": true
                          }
                        ]
                      }
                    }
                  ],
                  "directives": []
                },
                "leadingComments": [
                  {
                    "type": "CommentBlock",
                    "value": "*\r\n     * Get the string of home page element.\r\n     ",
                    "start": 552,
                    "end": 609,
                    "loc": {
                      "start": {
                        "line": 25,
                        "column": 4
                      },
                      "end": {
                        "line": 27,
                        "column": 7
                      }
                    }
                  }
                ]
              }
            ]
          },
          "leadingComments": [],
          "trailingComments": []
        }
      }
    ],
    "directives": []
  },
  "comments": [
    {
      "type": "CommentBlock",
      "value": "*\r\n     * Class constructor.\r\n     ",
      "start": 130,
      "end": 169,
      "loc": {
        "start": {
          "line": 5,
          "column": 4
        },
        "end": {
          "line": 7,
          "column": 7
        }
      }
    },
    {
      "type": "CommentBlock",
      "value": "*\r\n     * Create Home page element.\r\n     ",
      "start": 229,
      "end": 275,
      "loc": {
        "start": {
          "line": 12,
          "column": 4
        },
        "end": {
          "line": 14,
          "column": 7
        }
      }
    },
    {
      "type": "CommentBlock",
      "value": "*\r\n     * Get the string of home page element.\r\n     ",
      "start": 552,
      "end": 609,
      "loc": {
        "start": {
          "line": 25,
          "column": 4
        },
        "end": {
          "line": 27,
          "column": 7
        }
      }
    }
  ],
  "tokens": [
    {
      "type": {
        "label": "import",
        "keyword": "import",
        "beforeExpr": false,
        "startsExpr": true,
        "rightAssociative": false,
        "isLoop": false,
        "isAssign": false,
        "prefix": false,
        "postfix": false,
        "binop": null,
        "updateContext": null
      },
      "value": "import",
      "start": 0,
      "end": 6,
      "loc": {
        "start": {
          "line": 1,
          "column": 0
        },
        "end": {
          "line": 1,
          "column": 6
        }
      }
    },
    {
      "type": {
        "label": "{",
        "beforeExpr": true,
        "startsExpr": true,
        "rightAssociative": false,
        "isLoop": false,
        "isAssign": false,
        "prefix": false,
        "postfix": false,
        "binop": null
      },
      "start": 7,
      "end": 8,
      "loc": {
        "start": {
          "line": 1,
          "column": 7
        },
        "end": {
          "line": 1,
          "column": 8
        }
      }
    },
    {
      "type": {
        "label": "name",
        "beforeExpr": false,
        "startsExpr": true,
        "rightAssociative": false,
        "isLoop": false,
        "isAssign": false,
        "prefix": false,
        "postfix": false,
        "binop": null
      },
      "value": "Page",
      "start": 9,
      "end": 13,
      "loc": {
        "start": {
          "line": 1,
          "column": 9
        },
        "end": {
          "line": 1,
          "column": 13
        }
      }
    },
    {
      "type": {
        "label": "}",
        "beforeExpr": false,
        "startsExpr": false,
        "rightAssociative": false,
        "isLoop": false,
        "isAssign": false,
        "prefix": false,
        "postfix": false,
        "binop": null
      },
      "start": 14,
      "end": 15,
      "loc": {
        "start": {
          "line": 1,
          "column": 14
        },
        "end": {
          "line": 1,
          "column": 15
        }
      }
    },
    {
      "type": {
        "label": "name",
        "beforeExpr": false,
        "startsExpr": true,
        "rightAssociative": false,
        "isLoop": false,
        "isAssign": false,
        "prefix": false,
        "postfix": false,
        "binop": null
      },
      "value": "from",
      "start": 16,
      "end": 20,
      "loc": {
        "start": {
          "line": 1,
          "column": 16
        },
        "end": {
          "line": 1,
          "column": 20
        }
      }
    },
    {
      "type": {
        "label": "string",
        "beforeExpr": false,
        "startsExpr": true,
        "rightAssociative": false,
        "isLoop": false,
        "isAssign": false,
        "prefix": false,
        "postfix": false,
        "binop": null,
        "updateContext": null
      },
      "value": "./page.js",
      "start": 21,
      "end": 32,
      "loc": {
        "start": {
          "line": 1,
          "column": 21
        },
        "end": {
          "line": 1,
          "column": 32
        }
      }
    },
    {
      "type": {
        "label": ";",
        "beforeExpr": true,
        "startsExpr": false,
        "rightAssociative": false,
        "isLoop": false,
        "isAssign": false,
        "prefix": false,
        "postfix": false,
        "binop": null,
        "updateContext": null
      },
      "start": 32,
      "end": 33,
      "loc": {
        "start": {
          "line": 1,
          "column": 32
        },
        "end": {
          "line": 1,
          "column": 33
        }
      }
    },
    {
      "type": {
        "label": "import",
        "keyword": "import",
        "beforeExpr": false,
        "startsExpr": true,
        "rightAssociative": false,
        "isLoop": false,
        "isAssign": false,
        "prefix": false,
        "postfix": false,
        "binop": null,
        "updateContext": null
      },
      "value": "import",
      "start": 35,
      "end": 41,
      "loc": {
        "start": {
          "line": 2,
          "column": 0
        },
        "end": {
          "line": 2,
          "column": 6
        }
      }
    },
    {
      "type": {
        "label": "{",
        "beforeExpr": true,
        "startsExpr": true,
        "rightAssociative": false,
        "isLoop": false,
        "isAssign": false,
        "prefix": false,
        "postfix": false,
        "binop": null
      },
      "start": 42,
      "end": 43,
      "loc": {
        "start": {
          "line": 2,
          "column": 7
        },
        "end": {
          "line": 2,
          "column": 8
        }
      }
    },
    {
      "type": {
        "label": "name",
        "beforeExpr": false,
        "startsExpr": true,
        "rightAssociative": false,
        "isLoop": false,
        "isAssign": false,
        "prefix": false,
        "postfix": false,
        "binop": null
      },
      "value": "Image",
      "start": 44,
      "end": 49,
      "loc": {
        "start": {
          "line": 2,
          "column": 9
        },
        "end": {
          "line": 2,
          "column": 14
        }
      }
    },
    {
      "type": {
        "label": "}",
        "beforeExpr": false,
        "startsExpr": false,
        "rightAssociative": false,
        "isLoop": false,
        "isAssign": false,
        "prefix": false,
        "postfix": false,
        "binop": null
      },
      "start": 50,
      "end": 51,
      "loc": {
        "start": {
          "line": 2,
          "column": 15
        },
        "end": {
          "line": 2,
          "column": 16
        }
      }
    },
    {
      "type": {
        "label": "name",
        "beforeExpr": false,
        "startsExpr": true,
        "rightAssociative": false,
        "isLoop": false,
        "isAssign": false,
        "prefix": false,
        "postfix": false,
        "binop": null
      },
      "value": "from",
      "start": 52,
      "end": 56,
      "loc": {
        "start": {
          "line": 2,
          "column": 17
        },
        "end": {
          "line": 2,
          "column": 21
        }
      }
    },
    {
      "type": {
        "label": "string",
        "beforeExpr": false,
        "startsExpr": true,
        "rightAssociative": false,
        "isLoop": false,
        "isAssign": false,
        "prefix": false,
        "postfix": false,
        "binop": null,
        "updateContext": null
      },
      "value": "../utilities/ui/image.js",
      "start": 57,
      "end": 83,
      "loc": {
        "start": {
          "line": 2,
          "column": 22
        },
        "end": {
          "line": 2,
          "column": 48
        }
      }
    },
    {
      "type": {
        "label": ";",
        "beforeExpr": true,
        "startsExpr": false,
        "rightAssociative": false,
        "isLoop": false,
        "isAssign": false,
        "prefix": false,
        "postfix": false,
        "binop": null,
        "updateContext": null
      },
      "start": 83,
      "end": 84,
      "loc": {
        "start": {
          "line": 2,
          "column": 48
        },
        "end": {
          "line": 2,
          "column": 49
        }
      }
    },
    {
      "type": {
        "label": "export",
        "keyword": "export",
        "beforeExpr": false,
        "startsExpr": false,
        "rightAssociative": false,
        "isLoop": false,
        "isAssign": false,
        "prefix": false,
        "postfix": false,
        "binop": null,
        "updateContext": null
      },
      "value": "export",
      "start": 88,
      "end": 94,
      "loc": {
        "start": {
          "line": 4,
          "column": 0
        },
        "end": {
          "line": 4,
          "column": 6
        }
      }
    },
    {
      "type": {
        "label": "class",
        "keyword": "class",
        "beforeExpr": false,
        "startsExpr": false,
        "rightAssociative": false,
        "isLoop": false,
        "isAssign": false,
        "prefix": false,
        "postfix": false,
        "binop": null,
        "updateContext": null
      },
      "value": "class",
      "start": 95,
      "end": 100,
      "loc": {
        "start": {
          "line": 4,
          "column": 7
        },
        "end": {
          "line": 4,
          "column": 12
        }
      }
    },
    {
      "type": {
        "label": "name",
        "beforeExpr": false,
        "startsExpr": true,
        "rightAssociative": false,
        "isLoop": false,
        "isAssign": false,
        "prefix": false,
        "postfix": false,
        "binop": null
      },
      "value": "HomePage",
      "start": 101,
      "end": 109,
      "loc": {
        "start": {
          "line": 4,
          "column": 13
        },
        "end": {
          "line": 4,
          "column": 21
        }
      }
    },
    {
      "type": {
        "label": "extends",
        "keyword": "extends",
        "beforeExpr": true,
        "startsExpr": false,
        "rightAssociative": false,
        "isLoop": false,
        "isAssign": false,
        "prefix": false,
        "postfix": false,
        "binop": null,
        "updateContext": null
      },
      "value": "extends",
      "start": 110,
      "end": 117,
      "loc": {
        "start": {
          "line": 4,
          "column": 22
        },
        "end": {
          "line": 4,
          "column": 29
        }
      }
    },
    {
      "type": {
        "label": "name",
        "beforeExpr": false,
        "startsExpr": true,
        "rightAssociative": false,
        "isLoop": false,
        "isAssign": false,
        "prefix": false,
        "postfix": false,
        "binop": null
      },
      "value": "Page",
      "start": 118,
      "end": 122,
      "loc": {
        "start": {
          "line": 4,
          "column": 30
        },
        "end": {
          "line": 4,
          "column": 34
        }
      }
    },
    {
      "type": {
        "label": "{",
        "beforeExpr": true,
        "startsExpr": true,
        "rightAssociative": false,
        "isLoop": false,
        "isAssign": false,
        "prefix": false,
        "postfix": false,
        "binop": null
      },
      "start": 123,
      "end": 124,
      "loc": {
        "start": {
          "line": 4,
          "column": 35
        },
        "end": {
          "line": 4,
          "column": 36
        }
      }
    },
    {
      "type": "CommentBlock",
      "value": "*\r\n     * Class constructor.\r\n     ",
      "start": 130,
      "end": 169,
      "loc": {
        "start": {
          "line": 5,
          "column": 4
        },
        "end": {
          "line": 7,
          "column": 7
        }
      }
    },
    {
      "type": {
        "label": "name",
        "beforeExpr": false,
        "startsExpr": true,
        "rightAssociative": false,
        "isLoop": false,
        "isAssign": false,
        "prefix": false,
        "postfix": false,
        "binop": null
      },
      "value": "constructor",
      "start": 175,
      "end": 186,
      "loc": {
        "start": {
          "line": 8,
          "column": 4
        },
        "end": {
          "line": 8,
          "column": 15
        }
      }
    },
    {
      "type": {
        "label": "(",
        "beforeExpr": true,
        "startsExpr": true,
        "rightAssociative": false,
        "isLoop": false,
        "isAssign": false,
        "prefix": false,
        "postfix": false,
        "binop": null
      },
      "start": 186,
      "end": 187,
      "loc": {
        "start": {
          "line": 8,
          "column": 15
        },
        "end": {
          "line": 8,
          "column": 16
        }
      }
    },
    {
      "type": {
        "label": ")",
        "beforeExpr": false,
        "startsExpr": false,
        "rightAssociative": false,
        "isLoop": false,
        "isAssign": false,
        "prefix": false,
        "postfix": false,
        "binop": null
      },
      "start": 187,
      "end": 188,
      "loc": {
        "start": {
          "line": 8,
          "column": 16
        },
        "end": {
          "line": 8,
          "column": 17
        }
      }
    },
    {
      "type": {
        "label": "{",
        "beforeExpr": true,
        "startsExpr": true,
        "rightAssociative": false,
        "isLoop": false,
        "isAssign": false,
        "prefix": false,
        "postfix": false,
        "binop": null
      },
      "start": 189,
      "end": 190,
      "loc": {
        "start": {
          "line": 8,
          "column": 18
        },
        "end": {
          "line": 8,
          "column": 19
        }
      }
    },
    {
      "type": {
        "label": "super",
        "keyword": "super",
        "beforeExpr": false,
        "startsExpr": true,
        "rightAssociative": false,
        "isLoop": false,
        "isAssign": false,
        "prefix": false,
        "postfix": false,
        "binop": null,
        "updateContext": null
      },
      "value": "super",
      "start": 200,
      "end": 205,
      "loc": {
        "start": {
          "line": 9,
          "column": 8
        },
        "end": {
          "line": 9,
          "column": 13
        }
      }
    },
    {
      "type": {
        "label": "(",
        "beforeExpr": true,
        "startsExpr": true,
        "rightAssociative": false,
        "isLoop": false,
        "isAssign": false,
        "prefix": false,
        "postfix": false,
        "binop": null
      },
      "start": 205,
      "end": 206,
      "loc": {
        "start": {
          "line": 9,
          "column": 13
        },
        "end": {
          "line": 9,
          "column": 14
        }
      }
    },
    {
      "type": {
        "label": "string",
        "beforeExpr": false,
        "startsExpr": true,
        "rightAssociative": false,
        "isLoop": false,
        "isAssign": false,
        "prefix": false,
        "postfix": false,
        "binop": null,
        "updateContext": null
      },
      "value": "Home",
      "start": 206,
      "end": 212,
      "loc": {
        "start": {
          "line": 9,
          "column": 14
        },
        "end": {
          "line": 9,
          "column": 20
        }
      }
    },
    {
      "type": {
        "label": ")",
        "beforeExpr": false,
        "startsExpr": false,
        "rightAssociative": false,
        "isLoop": false,
        "isAssign": false,
        "prefix": false,
        "postfix": false,
        "binop": null
      },
      "start": 212,
      "end": 213,
      "loc": {
        "start": {
          "line": 9,
          "column": 20
        },
        "end": {
          "line": 9,
          "column": 21
        }
      }
    },
    {
      "type": {
        "label": ";",
        "beforeExpr": true,
        "startsExpr": false,
        "rightAssociative": false,
        "isLoop": false,
        "isAssign": false,
        "prefix": false,
        "postfix": false,
        "binop": null,
        "updateContext": null
      },
      "start": 213,
      "end": 214,
      "loc": {
        "start": {
          "line": 9,
          "column": 21
        },
        "end": {
          "line": 9,
          "column": 22
        }
      }
    },
    {
      "type": {
        "label": "}",
        "beforeExpr": false,
        "startsExpr": false,
        "rightAssociative": false,
        "isLoop": false,
        "isAssign": false,
        "prefix": false,
        "postfix": false,
        "binop": null
      },
      "start": 220,
      "end": 221,
      "loc": {
        "start": {
          "line": 10,
          "column": 4
        },
        "end": {
          "line": 10,
          "column": 5
        }
      }
    },
    {
      "type": "CommentBlock",
      "value": "*\r\n     * Create Home page element.\r\n     ",
      "start": 229,
      "end": 275,
      "loc": {
        "start": {
          "line": 12,
          "column": 4
        },
        "end": {
          "line": 14,
          "column": 7
        }
      }
    },
    {
      "type": {
        "label": "name",
        "beforeExpr": false,
        "startsExpr": true,
        "rightAssociative": false,
        "isLoop": false,
        "isAssign": false,
        "prefix": false,
        "postfix": false,
        "binop": null
      },
      "value": "createElement",
      "start": 281,
      "end": 294,
      "loc": {
        "start": {
          "line": 15,
          "column": 4
        },
        "end": {
          "line": 15,
          "column": 17
        }
      }
    },
    {
      "type": {
        "label": "(",
        "beforeExpr": true,
        "startsExpr": true,
        "rightAssociative": false,
        "isLoop": false,
        "isAssign": false,
        "prefix": false,
        "postfix": false,
        "binop": null
      },
      "start": 294,
      "end": 295,
      "loc": {
        "start": {
          "line": 15,
          "column": 17
        },
        "end": {
          "line": 15,
          "column": 18
        }
      }
    },
    {
      "type": {
        "label": ")",
        "beforeExpr": false,
        "startsExpr": false,
        "rightAssociative": false,
        "isLoop": false,
        "isAssign": false,
        "prefix": false,
        "postfix": false,
        "binop": null
      },
      "start": 295,
      "end": 296,
      "loc": {
        "start": {
          "line": 15,
          "column": 18
        },
        "end": {
          "line": 15,
          "column": 19
        }
      }
    },
    {
      "type": {
        "label": "{",
        "beforeExpr": true,
        "startsExpr": true,
        "rightAssociative": false,
        "isLoop": false,
        "isAssign": false,
        "prefix": false,
        "postfix": false,
        "binop": null
      },
      "start": 297,
      "end": 298,
      "loc": {
        "start": {
          "line": 15,
          "column": 20
        },
        "end": {
          "line": 15,
          "column": 21
        }
      }
    },
    {
      "type": {
        "label": "super",
        "keyword": "super",
        "beforeExpr": false,
        "startsExpr": true,
        "rightAssociative": false,
        "isLoop": false,
        "isAssign": false,
        "prefix": false,
        "postfix": false,
        "binop": null,
        "updateContext": null
      },
      "value": "super",
      "start": 308,
      "end": 313,
      "loc": {
        "start": {
          "line": 16,
          "column": 8
        },
        "end": {
          "line": 16,
          "column": 13
        }
      }
    },
    {
      "type": {
        "label": ".",
        "beforeExpr": false,
        "startsExpr": false,
        "rightAssociative": false,
        "isLoop": false,
        "isAssign": false,
        "prefix": false,
        "postfix": false,
        "binop": null,
        "updateContext": null
      },
      "start": 313,
      "end": 314,
      "loc": {
        "start": {
          "line": 16,
          "column": 13
        },
        "end": {
          "line": 16,
          "column": 14
        }
      }
    },
    {
      "type": {
        "label": "name",
        "beforeExpr": false,
        "startsExpr": true,
        "rightAssociative": false,
        "isLoop": false,
        "isAssign": false,
        "prefix": false,
        "postfix": false,
        "binop": null
      },
      "value": "createElement",
      "start": 314,
      "end": 327,
      "loc": {
        "start": {
          "line": 16,
          "column": 14
        },
        "end": {
          "line": 16,
          "column": 27
        }
      }
    },
    {
      "type": {
        "label": "(",
        "beforeExpr": true,
        "startsExpr": true,
        "rightAssociative": false,
        "isLoop": false,
        "isAssign": false,
        "prefix": false,
        "postfix": false,
        "binop": null
      },
      "start": 327,
      "end": 328,
      "loc": {
        "start": {
          "line": 16,
          "column": 27
        },
        "end": {
          "line": 16,
          "column": 28
        }
      }
    },
    {
      "type": {
        "label": ")",
        "beforeExpr": false,
        "startsExpr": false,
        "rightAssociative": false,
        "isLoop": false,
        "isAssign": false,
        "prefix": false,
        "postfix": false,
        "binop": null
      },
      "start": 328,
      "end": 329,
      "loc": {
        "start": {
          "line": 16,
          "column": 28
        },
        "end": {
          "line": 16,
          "column": 29
        }
      }
    },
    {
      "type": {
        "label": ";",
        "beforeExpr": true,
        "startsExpr": false,
        "rightAssociative": false,
        "isLoop": false,
        "isAssign": false,
        "prefix": false,
        "postfix": false,
        "binop": null,
        "updateContext": null
      },
      "start": 329,
      "end": 330,
      "loc": {
        "start": {
          "line": 16,
          "column": 29
        },
        "end": {
          "line": 16,
          "column": 30
        }
      }
    },
    {
      "type": {
        "label": "const",
        "keyword": "const",
        "beforeExpr": false,
        "startsExpr": false,
        "rightAssociative": false,
        "isLoop": false,
        "isAssign": false,
        "prefix": false,
        "postfix": false,
        "binop": null,
        "updateContext": null
      },
      "value": "const",
      "start": 342,
      "end": 347,
      "loc": {
        "start": {
          "line": 18,
          "column": 8
        },
        "end": {
          "line": 18,
          "column": 13
        }
      }
    },
    {
      "type": {
        "label": "name",
        "beforeExpr": false,
        "startsExpr": true,
        "rightAssociative": false,
        "isLoop": false,
        "isAssign": false,
        "prefix": false,
        "postfix": false,
        "binop": null
      },
      "value": "text",
      "start": 348,
      "end": 352,
      "loc": {
        "start": {
          "line": 18,
          "column": 14
        },
        "end": {
          "line": 18,
          "column": 18
        }
      }
    },
    {
      "type": {
        "label": "=",
        "beforeExpr": true,
        "startsExpr": false,
        "rightAssociative": false,
        "isLoop": false,
        "isAssign": true,
        "prefix": false,
        "postfix": false,
        "binop": null,
        "updateContext": null
      },
      "value": "=",
      "start": 353,
      "end": 354,
      "loc": {
        "start": {
          "line": 18,
          "column": 19
        },
        "end": {
          "line": 18,
          "column": 20
        }
      }
    },
    {
      "type": {
        "label": "string",
        "beforeExpr": false,
        "startsExpr": true,
        "rightAssociative": false,
        "isLoop": false,
        "isAssign": false,
        "prefix": false,
        "postfix": false,
        "binop": null,
        "updateContext": null
      },
      "value": "<h1>Welcome to My App</h1><br>",
      "start": 355,
      "end": 387,
      "loc": {
        "start": {
          "line": 18,
          "column": 21
        },
        "end": {
          "line": 18,
          "column": 53
        }
      }
    },
    {
      "type": {
        "label": ";",
        "beforeExpr": true,
        "startsExpr": false,
        "rightAssociative": false,
        "isLoop": false,
        "isAssign": false,
        "prefix": false,
        "postfix": false,
        "binop": null,
        "updateContext": null
      },
      "start": 387,
      "end": 388,
      "loc": {
        "start": {
          "line": 18,
          "column": 53
        },
        "end": {
          "line": 18,
          "column": 54
        }
      }
    },
    {
      "type": {
        "label": "this",
        "keyword": "this",
        "beforeExpr": false,
        "startsExpr": true,
        "rightAssociative": false,
        "isLoop": false,
        "isAssign": false,
        "prefix": false,
        "postfix": false,
        "binop": null,
        "updateContext": null
      },
      "value": "this",
      "start": 398,
      "end": 402,
      "loc": {
        "start": {
          "line": 19,
          "column": 8
        },
        "end": {
          "line": 19,
          "column": 12
        }
      }
    },
    {
      "type": {
        "label": ".",
        "beforeExpr": false,
        "startsExpr": false,
        "rightAssociative": false,
        "isLoop": false,
        "isAssign": false,
        "prefix": false,
        "postfix": false,
        "binop": null,
        "updateContext": null
      },
      "start": 402,
      "end": 403,
      "loc": {
        "start": {
          "line": 19,
          "column": 12
        },
        "end": {
          "line": 19,
          "column": 13
        }
      }
    },
    {
      "type": {
        "label": "name",
        "beforeExpr": false,
        "startsExpr": true,
        "rightAssociative": false,
        "isLoop": false,
        "isAssign": false,
        "prefix": false,
        "postfix": false,
        "binop": null
      },
      "value": "element",
      "start": 403,
      "end": 410,
      "loc": {
        "start": {
          "line": 19,
          "column": 13
        },
        "end": {
          "line": 19,
          "column": 20
        }
      }
    },
    {
      "type": {
        "label": ".",
        "beforeExpr": false,
        "startsExpr": false,
        "rightAssociative": false,
        "isLoop": false,
        "isAssign": false,
        "prefix": false,
        "postfix": false,
        "binop": null,
        "updateContext": null
      },
      "start": 410,
      "end": 411,
      "loc": {
        "start": {
          "line": 19,
          "column": 20
        },
        "end": {
          "line": 19,
          "column": 21
        }
      }
    },
    {
      "type": {
        "label": "name",
        "beforeExpr": false,
        "startsExpr": true,
        "rightAssociative": false,
        "isLoop": false,
        "isAssign": false,
        "prefix": false,
        "postfix": false,
        "binop": null
      },
      "value": "append",
      "start": 411,
      "end": 417,
      "loc": {
        "start": {
          "line": 19,
          "column": 21
        },
        "end": {
          "line": 19,
          "column": 27
        }
      }
    },
    {
      "type": {
        "label": "(",
        "beforeExpr": true,
        "startsExpr": true,
        "rightAssociative": false,
        "isLoop": false,
        "isAssign": false,
        "prefix": false,
        "postfix": false,
        "binop": null
      },
      "start": 417,
      "end": 418,
      "loc": {
        "start": {
          "line": 19,
          "column": 27
        },
        "end": {
          "line": 19,
          "column": 28
        }
      }
    },
    {
      "type": {
        "label": "name",
        "beforeExpr": false,
        "startsExpr": true,
        "rightAssociative": false,
        "isLoop": false,
        "isAssign": false,
        "prefix": false,
        "postfix": false,
        "binop": null
      },
      "value": "text",
      "start": 418,
      "end": 422,
      "loc": {
        "start": {
          "line": 19,
          "column": 28
        },
        "end": {
          "line": 19,
          "column": 32
        }
      }
    },
    {
      "type": {
        "label": ")",
        "beforeExpr": false,
        "startsExpr": false,
        "rightAssociative": false,
        "isLoop": false,
        "isAssign": false,
        "prefix": false,
        "postfix": false,
        "binop": null
      },
      "start": 422,
      "end": 423,
      "loc": {
        "start": {
          "line": 19,
          "column": 32
        },
        "end": {
          "line": 19,
          "column": 33
        }
      }
    },
    {
      "type": {
        "label": ";",
        "beforeExpr": true,
        "startsExpr": false,
        "rightAssociative": false,
        "isLoop": false,
        "isAssign": false,
        "prefix": false,
        "postfix": false,
        "binop": null,
        "updateContext": null
      },
      "start": 423,
      "end": 424,
      "loc": {
        "start": {
          "line": 19,
          "column": 33
        },
        "end": {
          "line": 19,
          "column": 34
        }
      }
    },
    {
      "type": {
        "label": "const",
        "keyword": "const",
        "beforeExpr": false,
        "startsExpr": false,
        "rightAssociative": false,
        "isLoop": false,
        "isAssign": false,
        "prefix": false,
        "postfix": false,
        "binop": null,
        "updateContext": null
      },
      "value": "const",
      "start": 436,
      "end": 441,
      "loc": {
        "start": {
          "line": 21,
          "column": 8
        },
        "end": {
          "line": 21,
          "column": 13
        }
      }
    },
    {
      "type": {
        "label": "name",
        "beforeExpr": false,
        "startsExpr": true,
        "rightAssociative": false,
        "isLoop": false,
        "isAssign": false,
        "prefix": false,
        "postfix": false,
        "binop": null
      },
      "value": "image",
      "start": 442,
      "end": 447,
      "loc": {
        "start": {
          "line": 21,
          "column": 14
        },
        "end": {
          "line": 21,
          "column": 19
        }
      }
    },
    {
      "type": {
        "label": "=",
        "beforeExpr": true,
        "startsExpr": false,
        "rightAssociative": false,
        "isLoop": false,
        "isAssign": true,
        "prefix": false,
        "postfix": false,
        "binop": null,
        "updateContext": null
      },
      "value": "=",
      "start": 448,
      "end": 449,
      "loc": {
        "start": {
          "line": 21,
          "column": 20
        },
        "end": {
          "line": 21,
          "column": 21
        }
      }
    },
    {
      "type": {
        "label": "new",
        "keyword": "new",
        "beforeExpr": true,
        "startsExpr": true,
        "rightAssociative": false,
        "isLoop": false,
        "isAssign": false,
        "prefix": false,
        "postfix": false,
        "binop": null,
        "updateContext": null
      },
      "value": "new",
      "start": 450,
      "end": 453,
      "loc": {
        "start": {
          "line": 21,
          "column": 22
        },
        "end": {
          "line": 21,
          "column": 25
        }
      }
    },
    {
      "type": {
        "label": "name",
        "beforeExpr": false,
        "startsExpr": true,
        "rightAssociative": false,
        "isLoop": false,
        "isAssign": false,
        "prefix": false,
        "postfix": false,
        "binop": null
      },
      "value": "Image",
      "start": 454,
      "end": 459,
      "loc": {
        "start": {
          "line": 21,
          "column": 26
        },
        "end": {
          "line": 21,
          "column": 31
        }
      }
    },
    {
      "type": {
        "label": "(",
        "beforeExpr": true,
        "startsExpr": true,
        "rightAssociative": false,
        "isLoop": false,
        "isAssign": false,
        "prefix": false,
        "postfix": false,
        "binop": null
      },
      "start": 459,
      "end": 460,
      "loc": {
        "start": {
          "line": 21,
          "column": 31
        },
        "end": {
          "line": 21,
          "column": 32
        }
      }
    },
    {
      "type": {
        "label": "string",
        "beforeExpr": false,
        "startsExpr": true,
        "rightAssociative": false,
        "isLoop": false,
        "isAssign": false,
        "prefix": false,
        "postfix": false,
        "binop": null,
        "updateContext": null
      },
      "value": "../../images/javascript.png",
      "start": 460,
      "end": 489,
      "loc": {
        "start": {
          "line": 21,
          "column": 32
        },
        "end": {
          "line": 21,
          "column": 61
        }
      }
    },
    {
      "type": {
        "label": ")",
        "beforeExpr": false,
        "startsExpr": false,
        "rightAssociative": false,
        "isLoop": false,
        "isAssign": false,
        "prefix": false,
        "postfix": false,
        "binop": null
      },
      "start": 489,
      "end": 490,
      "loc": {
        "start": {
          "line": 21,
          "column": 61
        },
        "end": {
          "line": 21,
          "column": 62
        }
      }
    },
    {
      "type": {
        "label": ";",
        "beforeExpr": true,
        "startsExpr": false,
        "rightAssociative": false,
        "isLoop": false,
        "isAssign": false,
        "prefix": false,
        "postfix": false,
        "binop": null,
        "updateContext": null
      },
      "start": 490,
      "end": 491,
      "loc": {
        "start": {
          "line": 21,
          "column": 62
        },
        "end": {
          "line": 21,
          "column": 63
        }
      }
    },
    {
      "type": {
        "label": "name",
        "beforeExpr": false,
        "startsExpr": true,
        "rightAssociative": false,
        "isLoop": false,
        "isAssign": false,
        "prefix": false,
        "postfix": false,
        "binop": null
      },
      "value": "image",
      "start": 501,
      "end": 506,
      "loc": {
        "start": {
          "line": 22,
          "column": 8
        },
        "end": {
          "line": 22,
          "column": 13
        }
      }
    },
    {
      "type": {
        "label": ".",
        "beforeExpr": false,
        "startsExpr": false,
        "rightAssociative": false,
        "isLoop": false,
        "isAssign": false,
        "prefix": false,
        "postfix": false,
        "binop": null,
        "updateContext": null
      },
      "start": 506,
      "end": 507,
      "loc": {
        "start": {
          "line": 22,
          "column": 13
        },
        "end": {
          "line": 22,
          "column": 14
        }
      }
    },
    {
      "type": {
        "label": "name",
        "beforeExpr": false,
        "startsExpr": true,
        "rightAssociative": false,
        "isLoop": false,
        "isAssign": false,
        "prefix": false,
        "postfix": false,
        "binop": null
      },
      "value": "appendToElement",
      "start": 507,
      "end": 522,
      "loc": {
        "start": {
          "line": 22,
          "column": 14
        },
        "end": {
          "line": 22,
          "column": 29
        }
      }
    },
    {
      "type": {
        "label": "(",
        "beforeExpr": true,
        "startsExpr": true,
        "rightAssociative": false,
        "isLoop": false,
        "isAssign": false,
        "prefix": false,
        "postfix": false,
        "binop": null
      },
      "start": 522,
      "end": 523,
      "loc": {
        "start": {
          "line": 22,
          "column": 29
        },
        "end": {
          "line": 22,
          "column": 30
        }
      }
    },
    {
      "type": {
        "label": "this",
        "keyword": "this",
        "beforeExpr": false,
        "startsExpr": true,
        "rightAssociative": false,
        "isLoop": false,
        "isAssign": false,
        "prefix": false,
        "postfix": false,
        "binop": null,
        "updateContext": null
      },
      "value": "this",
      "start": 523,
      "end": 527,
      "loc": {
        "start": {
          "line": 22,
          "column": 30
        },
        "end": {
          "line": 22,
          "column": 34
        }
      }
    },
    {
      "type": {
        "label": ".",
        "beforeExpr": false,
        "startsExpr": false,
        "rightAssociative": false,
        "isLoop": false,
        "isAssign": false,
        "prefix": false,
        "postfix": false,
        "binop": null,
        "updateContext": null
      },
      "start": 527,
      "end": 528,
      "loc": {
        "start": {
          "line": 22,
          "column": 34
        },
        "end": {
          "line": 22,
          "column": 35
        }
      }
    },
    {
      "type": {
        "label": "name",
        "beforeExpr": false,
        "startsExpr": true,
        "rightAssociative": false,
        "isLoop": false,
        "isAssign": false,
        "prefix": false,
        "postfix": false,
        "binop": null
      },
      "value": "element",
      "start": 528,
      "end": 535,
      "loc": {
        "start": {
          "line": 22,
          "column": 35
        },
        "end": {
          "line": 22,
          "column": 42
        }
      }
    },
    {
      "type": {
        "label": ")",
        "beforeExpr": false,
        "startsExpr": false,
        "rightAssociative": false,
        "isLoop": false,
        "isAssign": false,
        "prefix": false,
        "postfix": false,
        "binop": null
      },
      "start": 535,
      "end": 536,
      "loc": {
        "start": {
          "line": 22,
          "column": 42
        },
        "end": {
          "line": 22,
          "column": 43
        }
      }
    },
    {
      "type": {
        "label": ";",
        "beforeExpr": true,
        "startsExpr": false,
        "rightAssociative": false,
        "isLoop": false,
        "isAssign": false,
        "prefix": false,
        "postfix": false,
        "binop": null,
        "updateContext": null
      },
      "start": 536,
      "end": 537,
      "loc": {
        "start": {
          "line": 22,
          "column": 43
        },
        "end": {
          "line": 22,
          "column": 44
        }
      }
    },
    {
      "type": {
        "label": "}",
        "beforeExpr": false,
        "startsExpr": false,
        "rightAssociative": false,
        "isLoop": false,
        "isAssign": false,
        "prefix": false,
        "postfix": false,
        "binop": null
      },
      "start": 543,
      "end": 544,
      "loc": {
        "start": {
          "line": 23,
          "column": 4
        },
        "end": {
          "line": 23,
          "column": 5
        }
      }
    },
    {
      "type": "CommentBlock",
      "value": "*\r\n     * Get the string of home page element.\r\n     ",
      "start": 552,
      "end": 609,
      "loc": {
        "start": {
          "line": 25,
          "column": 4
        },
        "end": {
          "line": 27,
          "column": 7
        }
      }
    },
    {
      "type": {
        "label": "name",
        "beforeExpr": false,
        "startsExpr": true,
        "rightAssociative": false,
        "isLoop": false,
        "isAssign": false,
        "prefix": false,
        "postfix": false,
        "binop": null
      },
      "value": "getElementString",
      "start": 615,
      "end": 631,
      "loc": {
        "start": {
          "line": 28,
          "column": 4
        },
        "end": {
          "line": 28,
          "column": 20
        }
      }
    },
    {
      "type": {
        "label": "(",
        "beforeExpr": true,
        "startsExpr": true,
        "rightAssociative": false,
        "isLoop": false,
        "isAssign": false,
        "prefix": false,
        "postfix": false,
        "binop": null
      },
      "start": 631,
      "end": 632,
      "loc": {
        "start": {
          "line": 28,
          "column": 20
        },
        "end": {
          "line": 28,
          "column": 21
        }
      }
    },
    {
      "type": {
        "label": ")",
        "beforeExpr": false,
        "startsExpr": false,
        "rightAssociative": false,
        "isLoop": false,
        "isAssign": false,
        "prefix": false,
        "postfix": false,
        "binop": null
      },
      "start": 632,
      "end": 633,
      "loc": {
        "start": {
          "line": 28,
          "column": 21
        },
        "end": {
          "line": 28,
          "column": 22
        }
      }
    },
    {
      "type": {
        "label": "{",
        "beforeExpr": true,
        "startsExpr": true,
        "rightAssociative": false,
        "isLoop": false,
        "isAssign": false,
        "prefix": false,
        "postfix": false,
        "binop": null
      },
      "start": 634,
      "end": 635,
      "loc": {
        "start": {
          "line": 28,
          "column": 23
        },
        "end": {
          "line": 28,
          "column": 24
        }
      }
    },
    {
      "type": {
        "label": "const",
        "keyword": "const",
        "beforeExpr": false,
        "startsExpr": false,
        "rightAssociative": false,
        "isLoop": false,
        "isAssign": false,
        "prefix": false,
        "postfix": false,
        "binop": null,
        "updateContext": null
      },
      "value": "const",
      "start": 645,
      "end": 650,
      "loc": {
        "start": {
          "line": 29,
          "column": 8
        },
        "end": {
          "line": 29,
          "column": 13
        }
      }
    },
    {
      "type": {
        "label": "name",
        "beforeExpr": false,
        "startsExpr": true,
        "rightAssociative": false,
        "isLoop": false,
        "isAssign": false,
        "prefix": false,
        "postfix": false,
        "binop": null
      },
      "value": "styleString",
      "start": 651,
      "end": 662,
      "loc": {
        "start": {
          "line": 29,
          "column": 14
        },
        "end": {
          "line": 29,
          "column": 25
        }
      }
    },
    {
      "type": {
        "label": "=",
        "beforeExpr": true,
        "startsExpr": false,
        "rightAssociative": false,
        "isLoop": false,
        "isAssign": true,
        "prefix": false,
        "postfix": false,
        "binop": null,
        "updateContext": null
      },
      "value": "=",
      "start": 663,
      "end": 664,
      "loc": {
        "start": {
          "line": 29,
          "column": 26
        },
        "end": {
          "line": 29,
          "column": 27
        }
      }
    },
    {
      "type": {
        "label": "string",
        "beforeExpr": false,
        "startsExpr": true,
        "rightAssociative": false,
        "isLoop": false,
        "isAssign": false,
        "prefix": false,
        "postfix": false,
        "binop": null,
        "updateContext": null
      },
      "value": "text-align: center; padding-top: 70px;",
      "start": 665,
      "end": 705,
      "loc": {
        "start": {
          "line": 29,
          "column": 28
        },
        "end": {
          "line": 29,
          "column": 68
        }
      }
    },
    {
      "type": {
        "label": ";",
        "beforeExpr": true,
        "startsExpr": false,
        "rightAssociative": false,
        "isLoop": false,
        "isAssign": false,
        "prefix": false,
        "postfix": false,
        "binop": null,
        "updateContext": null
      },
      "start": 705,
      "end": 706,
      "loc": {
        "start": {
          "line": 29,
          "column": 68
        },
        "end": {
          "line": 29,
          "column": 69
        }
      }
    },
    {
      "type": {
        "label": "return",
        "keyword": "return",
        "beforeExpr": true,
        "startsExpr": false,
        "rightAssociative": false,
        "isLoop": false,
        "isAssign": false,
        "prefix": false,
        "postfix": false,
        "binop": null,
        "updateContext": null
      },
      "value": "return",
      "start": 718,
      "end": 724,
      "loc": {
        "start": {
          "line": 31,
          "column": 8
        },
        "end": {
          "line": 31,
          "column": 14
        }
      }
    },
    {
      "type": {
        "label": "`",
        "beforeExpr": false,
        "startsExpr": true,
        "rightAssociative": false,
        "isLoop": false,
        "isAssign": false,
        "prefix": false,
        "postfix": false,
        "binop": null
      },
      "start": 725,
      "end": 726,
      "loc": {
        "start": {
          "line": 31,
          "column": 15
        },
        "end": {
          "line": 31,
          "column": 16
        }
      }
    },
    {
      "type": {
        "label": "template",
        "beforeExpr": false,
        "startsExpr": false,
        "rightAssociative": false,
        "isLoop": false,
        "isAssign": false,
        "prefix": false,
        "postfix": false,
        "binop": null,
        "updateContext": null
      },
      "value": "<div style=\"",
      "start": 726,
      "end": 738,
      "loc": {
        "start": {
          "line": 31,
          "column": 16
        },
        "end": {
          "line": 31,
          "column": 28
        }
      }
    },
    {
      "type": {
        "label": "${",
        "beforeExpr": true,
        "startsExpr": true,
        "rightAssociative": false,
        "isLoop": false,
        "isAssign": false,
        "prefix": false,
        "postfix": false,
        "binop": null
      },
      "start": 738,
      "end": 740,
      "loc": {
        "start": {
          "line": 31,
          "column": 28
        },
        "end": {
          "line": 31,
          "column": 30
        }
      }
    },
    {
      "type": {
        "label": "name",
        "beforeExpr": false,
        "startsExpr": true,
        "rightAssociative": false,
        "isLoop": false,
        "isAssign": false,
        "prefix": false,
        "postfix": false,
        "binop": null
      },
      "value": "styleString",
      "start": 740,
      "end": 751,
      "loc": {
        "start": {
          "line": 31,
          "column": 30
        },
        "end": {
          "line": 31,
          "column": 41
        }
      }
    },
    {
      "type": {
        "label": "}",
        "beforeExpr": false,
        "startsExpr": false,
        "rightAssociative": false,
        "isLoop": false,
        "isAssign": false,
        "prefix": false,
        "postfix": false,
        "binop": null
      },
      "start": 751,
      "end": 752,
      "loc": {
        "start": {
          "line": 31,
          "column": 41
        },
        "end": {
          "line": 31,
          "column": 42
        }
      }
    },
    {
      "type": {
        "label": "template",
        "beforeExpr": false,
        "startsExpr": false,
        "rightAssociative": false,
        "isLoop": false,
        "isAssign": false,
        "prefix": false,
        "postfix": false,
        "binop": null,
        "updateContext": null
      },
      "value": "\"></div>",
      "start": 752,
      "end": 760,
      "loc": {
        "start": {
          "line": 31,
          "column": 42
        },
        "end": {
          "line": 31,
          "column": 50
        }
      }
    },
    {
      "type": {
        "label": "`",
        "beforeExpr": false,
        "startsExpr": true,
        "rightAssociative": false,
        "isLoop": false,
        "isAssign": false,
        "prefix": false,
        "postfix": false,
        "binop": null
      },
      "start": 760,
      "end": 761,
      "loc": {
        "start": {
          "line": 31,
          "column": 50
        },
        "end": {
          "line": 31,
          "column": 51
        }
      }
    },
    {
      "type": {
        "label": ";",
        "beforeExpr": true,
        "startsExpr": false,
        "rightAssociative": false,
        "isLoop": false,
        "isAssign": false,
        "prefix": false,
        "postfix": false,
        "binop": null,
        "updateContext": null
      },
      "start": 761,
      "end": 762,
      "loc": {
        "start": {
          "line": 31,
          "column": 51
        },
        "end": {
          "line": 31,
          "column": 52
        }
      }
    },
    {
      "type": {
        "label": "}",
        "beforeExpr": false,
        "startsExpr": false,
        "rightAssociative": false,
        "isLoop": false,
        "isAssign": false,
        "prefix": false,
        "postfix": false,
        "binop": null
      },
      "start": 768,
      "end": 769,
      "loc": {
        "start": {
          "line": 32,
          "column": 4
        },
        "end": {
          "line": 32,
          "column": 5
        }
      }
    },
    {
      "type": {
        "label": "}",
        "beforeExpr": false,
        "startsExpr": false,
        "rightAssociative": false,
        "isLoop": false,
        "isAssign": false,
        "prefix": false,
        "postfix": false,
        "binop": null
      },
      "start": 771,
      "end": 772,
      "loc": {
        "start": {
          "line": 33,
          "column": 0
        },
        "end": {
          "line": 33,
          "column": 1
        }
      }
    },
    {
      "type": {
        "label": "eof",
        "beforeExpr": false,
        "startsExpr": false,
        "rightAssociative": false,
        "isLoop": false,
        "isAssign": false,
        "prefix": false,
        "postfix": false,
        "binop": null,
        "updateContext": null
      },
      "start": 772,
      "end": 772,
      "loc": {
        "start": {
          "line": 33,
          "column": 1
        },
        "end": {
          "line": 33,
          "column": 1
        }
      }
    }
  ]
}